*** Life<FredkinCell> 2x2 ***

Generation = 0, Population = 4.
00
00

Generation = 5, Population = 0.
--
--

Generation = 10, Population = 0.
--
--

Generation = 15, Population = 0.
--
--

Generation = 20, Population = 0.
--
--

Generation = 25, Population = 0.
--
--

Generation = 30, Population = 0.
--
--

Generation = 35, Population = 0.
--
--

*** Life<FredkinCell> 2x13 ***

Generation = 0, Population = 5.
00---0-------
----0-----0--

Generation = 6, Population = 12.
2430--10-0-0-
------0-0-0-0

Generation = 12, Population = 11.
4----12-142-0
1-----1-1---0

Generation = 18, Population = 9.
-751----2---4
--3-3-2-2----

Generation = 24, Population = 10.
889-54---57-5
--------3---1

Generation = 30, Population = 10.
-++--8-2-----
--4-4-4-4-2-2

Generation = 36, Population = 8.
+-----5-58---
----5---4-2-2

Generation = 42, Population = 11.
--+3++--5++3+
--6-6--------

Generation = 48, Population = 10.
+-+-++7-8----
7---7-6---3--

*** Life<FredkinCell> 12x2 ***

Generation = 0, Population = 13.
0-
--
00
0-
00
--
--
00
00
--
-0
00

Generation = 20, Population = 11.
3-
3-
57
-7
--
3-
45
--
--
39
--
-9

Generation = 40, Population = 11.
8-
--
8-
--
88
8-
8-
6-
-+
9+
--
-+

*** Life<FredkinCell> 1x5 ***

Generation = 0, Population = 4.
00-00

Generation = 15, Population = 4.
++-++

Generation = 30, Population = 4.
++-++

*** Life<FredkinCell> 5x11 ***

Generation = 0, Population = 16.
-----0-----
---0--0---0
0--0-0-----
-0--00---0-
---00-000--

Generation = 7, Population = 29.
-211-1134--
---10-21---
104--11-3-2
314-0----0-
--2-224--11

Generation = 14, Population = 20.
-74--4--6-1
-03-30---23
--4-----337
-----------
3-4---6--25

Generation = 21, Population = 16.
-+6-3--5-+-
7-----+-9--
-+-----1-7+
-----------
-5-----5-39

Generation = 28, Population = 31.
-+843++--+3
+-+-+-+-+-+
4+65+7--5++
-25-11---13
---4--8----

Generation = 35, Population = 29.
-++4-++79--
+-+-+-+-+-+
4+-5+8-3--+
3-----0-3--
6974-2-7---

Generation = 42, Population = 20.
----5++--+5
-0+-+0---2+
-+--+-6---+
-----------
6+--7---+-+

Generation = 49, Population = 24.
-+-6--+-++-
+-----+-+--
-+97+-6-8++
-----------
-+967-+-+++

Generation = 56, Population = 31.
7+--7+++++-
+-+-+-+-+-+
-+--++-6-+-
-25-11---13
8-9---+++-+

Generation = 63, Population = 29.
7--8-+++-+8
+-+-+-+-+-+
--+9++-6++-
3-----0-3--
---8-2-++++

Generation = 70, Population = 20.
-++--+--+-8
-0+-+0---2+
--+-----+++
-----------
+-+---+--++

*** Life<FredkinCell> 3x2 ***

Generation = 0, Population = 2.
-0
--
-0

Generation = 19, Population = 2.
0-
--
0-

Generation = 38, Population = 2.
-0
--
-0

Generation = 57, Population = 2.
0-
--
0-

*** Life<FredkinCell> 1x11 ***

Generation = 0, Population = 5.
-0--00--00-

Generation = 12, Population = 4.
0---1---1-1

Generation = 24, Population = 4.
0-1---0---1

*** Life<FredkinCell> 15x12 ***

Generation = 0, Population = 5.
------------
-------0----
------------
------------
------------
------------
------------
------------
---00-------
------------
------------
---------0--
------------
-----------0
------------

Generation = 6, Population = 38.
------------
-0---------0
---10-------
---1-------0
-01--10-----
-----0------
0--11--10---
------------
1-2--22--00-
-----0------
0--11--00---
---1-------0
-01--00-----
-------0---0
---00-------

Generation = 12, Population = 36.
1------00---
-----1-0-0--
---33-------
-----0-----0
--2-1------1
---1--------
------------
-1-----0----
3-----4--3--
-----3---2--
---33-------
-1-2--------
--3-3------0
-1-3-3---0-0
1------10---

Generation = 18, Population = 25.
------------
---2-1---1--
------------
-0-----0----
------------
------------
----20----03
------------
--45--5235-8
-----4------
----61----02
-1-----1----
------------
-1-5--------
------------

Generation = 24, Population = 26.
----22----11
-----2------
------------
-----4------
------------
---3---1----
------------
------------
-3-9-3+----9
---3---3----
------------
-3---5-----2
------------
---7-6---1-1
----76----24

Generation = 30, Population = 65.
-246---44353
-----------2
1-0-+-1--1-8
-2-------0--
-447--3---16
---4---1----
-414431-----
------------
5--+-7-34-4+
---5---3----
-3--+7-221-9
-4-------0--
1-55---30--7
---9-----3-4
--3--755436-

Generation = 36, Population = 33.
------------
-----5-4-2-2
------------
------------
05-------12-
-2---------3
------------
---1-----1--
-5+-7-+---8+
-----6-4----
------------
-----6-1---2
13-------23-
-1-+-8-3-4-5
------------

Generation = 42, Population = 64.
-558---55374
-4-4-5-4-5-2
21-------35-
---4-----4--
------------
---4-3-2-1-3
-71--4-422--
------------
9---8++--9++
-4---8---9--
-41--9-224--
---5-----5--
33-------24-
-7-+-------7
-344---557+4

Generation = 48, Population = 16.
------------
-6-6---5---3
------------
------------
------------
------------
------------
------------
9---++-79-++
------------
------------
-----------2
------------
-+-+---4-8--
------------

Generation = 54, Population = 66.
------------
---6-5---6-3
5---+8-21-89
-5-4-8---5-4
3--9-7-37-59
-5-4--------
-937572-----
------------
-9++--+---++
-8-+--------
-525++2-----
-8-5-8---6-4
5--9-6-59-9+
---------8-+
5---++-85-+4

Generation = 60, Population = 65.
357+--566-96
-------6----
5---++-54-++
-------5-5--
-7-95--5836-
-----6-6---8
------------
---3-1------
--+-+------+
-8-+-------+
8---++-44-8+
-+----------
-3-++--7+2+-
-+-----8-8-+
5475--6+8-+4

Generation = 66, Population = 27.
------------
-6-7-7-7----
------------
---5-8------
------------
------------
------3936--
------------
----++++++++
-8-+--------
------355+--
---5-8------
------------
-+----------
------------

Generation = 72, Population = 29.
------6775--
-6-7--------
------------
-5-5--------
------------
-6-5-6------
------------
------------
-+-----++++-
-9-+-+------
------------
-+---8---8-7
------------
-----+---9--
------9+9+--

*** Life<FredkinCell> 2x10 ***

Generation = 0, Population = 12.
-0-0-0-000
-0-000-00-

Generation = 3, Population = 6.
---30---3-
-111------

Generation = 6, Population = 11.
-31-3-00-2
-221--0-0-

Generation = 9, Population = 13.
-415--0153
32---21-00

Generation = 12, Population = 11.
-42633--6-
-3--251--0

Generation = 15, Population = 11.
----4303-3
-65-2-2-10

Generation = 18, Population = 9.
2-4------6
696-5-5--0

Generation = 21, Population = 10.
5-5-6316--
-----75-41

Generation = 24, Population = 11.
--68---789
6---685-52

Generation = 27, Population = 15.
7--+943-++
69-379-252

Generation = 30, Population = 13.
8-8++---++
-+64-+75-3

Generation = 33, Population = 8.
--9--65---
7+-----896

Generation = 36, Population = 6.
-6----8---
-+9----9-9

Generation = 39, Population = 8.
-99--8----
++-6++----

Generation = 42, Population = 13.
+-++-+89+-
++-9-+9-9-

Generation = 45, Population = 12.
++-+--99+-
+-+-+-9-+9

Generation = 48, Population = 11.
+++-++-+--
--+-+-+-++

Generation = 51, Population = 12.
--+++++-+-
+-++---+++

Generation = 54, Population = 9.
--+-+--+-+
---+--++++

Generation = 57, Population = 11.
---+-+++++
---++-+-++

Generation = 60, Population = 10.
++--+-++--
+--++---++

Generation = 63, Population = 9.
++-+++--++
++--------

Generation = 66, Population = 8.
-+--++-+-+
++------+-

Generation = 69, Population = 10.
+--+---++-
+-++-+++--

Generation = 72, Population = 8.
---++---+-
+--+++-+--

Generation = 75, Population = 8.
+---+--+--
++---+++--

Generation = 78, Population = 15.
-+++--++++
+++-+++++-

Generation = 81, Population = 11.
+++++-+-++
-------+++

Generation = 84, Population = 10.
----++++-+
+-+----+++

Generation = 87, Population = 12.
++++-+-++-
-++-+-++--

Generation = 90, Population = 11.
+-+-++++--
-+--+-+++-

Generation = 93, Population = 12.
-+-++-+-+-
-++-++-+++

*** Life<FredkinCell> 2x10 ***

Generation = 0, Population = 10.
-0-----0-0
0-000--000

Generation = 2, Population = 10.
-0-1-0---2
0120----00

Generation = 4, Population = 7.
---3------
2---21012-

Generation = 6, Population = 6.
-1-3-1----
---0--0--1

Generation = 8, Population = 9.
---5---1--
-3-241024-

Generation = 10, Population = 9.
-2-7---3-3
--22-10--2

Generation = 12, Population = 6.
---------5
234---2-6-

Generation = 14, Population = 4.
-------3--
43-3------

Generation = 16, Population = 5.
-----1-3-5
--5--2----

Generation = 18, Population = 9.
---8---3-5
5-5454-4--

Generation = 20, Population = 9.
-2-+-----5
547--62--4

Generation = 22, Population = 7.
-----3-4--
76---84-7-

Generation = 24, Population = 7.
---+-----6
-89-68-6--

Generation = 26, Population = 8.
-4-+-5-5--
9+----5--6

Generation = 28, Population = 10.
---+-5---7
-++67-568-

Generation = 30, Population = 6.
-6--------
+---9-76-6
